<svg width="26" height="32" viewBox="0 0 26 32" fill="none" xmlns="http://www.w3.org/2000/svg">
<path d="M24.8743 7.38688L22.4804 4.99306V1.42237C22.4804 0.638062 21.8423 0 21.0579 0H1.40462C0.630125 0 0 0.630125 0 1.40463V24.9691C0 25.7436 0.630125 26.3737 1.40462 26.3737H2.19913V27.1564C2.19913 27.9309 2.82925 28.5611 3.60381 28.5611H6.65088C6.90975 28.5611 7.11963 28.3512 7.11963 28.0923C7.11963 27.8334 6.90975 27.6236 6.65088 27.6236H3.60381C3.34619 27.6236 3.13663 27.414 3.13663 27.1564V8.30994C3.13663 8.051 2.92675 7.84119 2.66788 7.84119C2.409 7.84119 2.19913 8.051 2.19913 8.30994V25.4362H1.40462C1.14706 25.4362 0.9375 25.2266 0.9375 24.9691V1.40463C0.9375 1.14706 1.14706 0.9375 1.40462 0.9375H21.058C21.3254 0.9375 21.5429 1.155 21.5429 1.42237V4.05562L19.8119 2.32469C19.7239 2.23681 19.6047 2.18744 19.4804 2.18744H3.60381C2.82925 2.18744 2.19913 2.81756 2.19913 3.59206V6.12787C2.19913 6.38681 2.409 6.59662 2.66788 6.59662C2.92675 6.59662 3.13663 6.38681 3.13663 6.12787V3.592C3.13663 3.33444 3.34619 3.12488 3.60381 3.12488H19.0116V7.7175C19.0116 7.97638 19.2214 8.18619 19.4803 8.18625L24.0741 8.187V27.1564C24.0741 27.4139 23.8646 27.6235 23.607 27.6235H20.5964C20.3375 27.6235 20.1276 27.8333 20.1276 28.0923C20.1276 28.3512 20.3375 28.561 20.5964 28.561H23.607C24.3815 28.561 25.0116 27.9309 25.0116 27.1564V7.71838C25.0116 7.59406 24.9622 7.47487 24.8743 7.38688ZM19.9491 7.24881V3.78775L23.411 7.24944L19.9491 7.24881Z" fill="white"/>
<path d="M19.2256 10.9659H8.01172C7.75284 10.9659 7.54297 11.1758 7.54297 11.4347C7.54297 11.6936 7.75284 11.9034 8.01172 11.9034H19.2256C19.4845 11.9034 19.6943 11.6936 19.6943 11.4347C19.6943 11.1758 19.4845 10.9659 19.2256 10.9659Z" fill="white"/>
<path d="M19.2256 13.7305H8.01172C7.75284 13.7305 7.54297 13.9403 7.54297 14.1992C7.54297 14.4582 7.75284 14.668 8.01172 14.668H19.2256C19.4845 14.668 19.6943 14.4582 19.6943 14.1992C19.6943 13.9403 19.4845 13.7305 19.2256 13.7305Z" fill="white"/>
<path d="M19.2232 16.5502H17.0078C16.7489 16.5502 16.5391 16.76 16.5391 17.0189C16.5391 17.2779 16.7489 17.4877 17.0078 17.4877H19.2232C19.4821 17.4877 19.692 17.2779 19.692 17.0189C19.692 16.76 19.4821 16.5502 19.2232 16.5502Z" fill="white"/>
<path d="M14.8041 17.4877C15.063 17.4877 15.2728 17.2779 15.2728 17.0189C15.2728 16.76 15.063 16.5502 14.8041 16.5502H8.01172C7.75284 16.5502 7.54297 16.76 7.54297 17.0189C7.54297 17.2779 7.75284 17.4877 8.01172 17.4877H14.8041Z" fill="white"/>
<path d="M15.3346 25.6624L14.0849 24.4129V28.9445C14.0849 29.2034 13.8751 29.4132 13.6162 29.4132C13.3573 29.4132 13.1474 29.2034 13.1474 28.9445V24.4129L11.8978 25.6624C11.7148 25.8454 11.418 25.8455 11.235 25.6624C11.0519 25.4793 11.0519 25.1825 11.235 24.9995L13.2848 22.9498C13.3763 22.8583 13.4963 22.8125 13.6162 22.8125C13.7361 22.8125 13.8561 22.8583 13.9476 22.9498L15.9974 24.9995C16.1805 25.1826 16.1805 25.4794 15.9974 25.6624C15.8144 25.8454 15.5176 25.8454 15.3346 25.6624Z" fill="white"/>
<path d="M13.6179 20.2257C10.3716 20.2257 7.73047 22.8667 7.73047 26.1129C7.73047 29.359 10.3716 32 13.6179 32C16.8642 32 19.5053 29.359 19.5053 26.1129C19.5053 22.8667 16.8642 20.2257 13.6179 20.2257ZM13.6179 31.0626C10.8885 31.0626 8.66797 28.8422 8.66797 26.113C8.66797 23.3837 10.8885 21.1633 13.6179 21.1633C16.3473 21.1633 18.5678 23.3837 18.5678 26.113C18.5678 28.8422 16.3473 31.0626 13.6179 31.0626Z" fill="white"/>
</svg>
