<svg width="202" height="56" viewBox="0 0 202 56" fill="none" xmlns="http://www.w3.org/2000/svg">
<path fill-rule="evenodd" clip-rule="evenodd" d="M196.379 46.8778C192.222 50.3775 187 52.4278 181.528 52.7079C177.744 52.945 174.799 51.6479 173.235 49.2908C170.548 50.9808 167.553 52.1459 164.415 52.7219C162.675 53.0038 160.902 53.0367 159.152 52.8195C156.306 52.4429 154.642 50.2671 155.24 49.6395C155.624 49.2489 156.52 49.7092 157.174 49.8487C157.829 49.9881 158.483 49.9881 159.08 49.8068C160.062 49.5279 160.859 48.8026 161.2 47.6868C161.669 46.0131 159.009 44.5207 156.861 43.1956C153.348 50.5321 148.895 52.3592 146.79 52.6521C146.003 52.7601 145.207 52.7928 144.414 52.7498C141.512 52.6103 140.232 50.7553 141.199 46.8499C141.597 45.8317 138.738 50.9505 135.708 52.0524C132.664 53.1403 126.888 53.5169 126.888 48.705C126.888 46.7244 127.315 44.6601 127.799 42.6935C128.155 41.243 128.866 38.7603 129.079 37.3377C129.264 36.5705 128.852 35.4129 128.254 35.2455C127.514 35.0223 126.718 35.2176 124.968 35.901L125.011 36.0545C125.395 37.6027 125.338 39.0672 125.196 40.434C125.053 41.8009 124.783 42.9027 124.641 43.4328C124.143 45.2459 121.582 51.4666 114.114 52.68C113.346 52.8195 112.521 52.8753 111.639 52.8892C106.66 52.9311 104.327 50.6297 103.246 48.3144C103.236 48.3232 103.226 48.3325 103.217 48.3423C100.273 51.2713 96.2755 54.2282 91.8941 52.415C88.0533 50.825 94.1702 37.505 90.7418 37.3237C87.5838 37.1703 85.0375 39.4995 83.5296 44.2138C82.0359 48.9142 83.2451 52.7219 83.2451 52.7219C83.2451 52.7219 78.4654 53.2379 76.7583 50.9087C76.0914 49.8181 75.7148 48.5807 75.663 47.3102C73.4438 50.2392 69.5034 52.3034 65.2073 52.694C64.1776 52.82 63.1359 52.82 62.1062 52.694C57.0989 52.0942 55.5625 48.44 55.278 44.4091C51.3049 49.0236 45.7313 52.0341 39.6301 52.8614C34.6797 53.5727 30.9954 51.4666 29.8147 47.5891C26.9127 50.546 22.389 53.6982 17.9792 51.885C14.2237 50.3229 20.2125 37.2679 16.8411 37.1005C16.0932 37.0492 15.3434 37.1686 14.6504 37.4492C12.6873 38.2721 11.1937 40.4201 10.0983 43.8651C8.61888 48.4678 9.81381 52.1919 9.81381 52.1919C9.81381 52.1919 5.11944 52.7079 3.45508 50.4205C1.79071 48.1192 2.92874 44.7578 3.39818 42.6935C3.71113 41.2848 4.05254 38.83 3.99564 37.4074C3.93874 36.1382 3.3555 35.8731 2.2317 36.4311C1.26437 36.9192 0.396625 37.2261 0.126344 36.8495C-0.0870367 36.5566 -0.0301353 36.2079 0.297048 35.6918C0.610006 35.1758 1.71958 34.1994 2.4593 33.516C4.2517 31.8423 6.79803 30.2383 7.89339 30.3917C8.98874 30.5452 10.7527 32.4141 10.2832 34.5481C10.1125 35.3571 10.1268 35.7755 10.1268 35.7755C10.1268 35.7755 12.5735 33.7671 14.6504 32.5397C15.2194 32.2049 15.7742 31.926 16.2152 31.7586C18.349 30.9915 22.6451 30.0849 24.2952 31.8283C25.9311 33.5857 25.7035 36.6403 24.6793 42.4285C24.1103 45.6923 24.2525 46.571 25.0065 46.8639C26.1303 47.3241 28.0649 46.7523 29.4448 45.3575L29.459 45.3296C29.4489 45.0415 29.4489 44.753 29.459 44.4649C29.6297 39.1369 33.7693 32.2328 40.6686 30.5591C41.3414 30.3978 42.0265 30.2905 42.7171 30.2383C50.8397 29.5688 51.4941 35.2873 47.8951 40.1411C46.0447 42.5154 43.5358 44.3167 40.6686 45.3296C39.1749 45.8875 38.1365 46.0549 38.1365 46.0549C38.7909 46.7523 39.6586 47.1986 40.6686 47.4218C42.8451 47.896 45.6475 47.3381 48.2792 46.2641C51.1608 45.1518 53.6137 43.181 55.2923 40.6293C55.4061 39.0114 55.6052 37.4911 55.7617 36.2218C55.9324 34.6876 56.4587 31.912 57.0135 28.7459C55.2923 28.7878 54.0404 28.8157 53.3434 28.7738C52.8882 28.732 52.6464 28.7041 52.561 28.2159C52.3761 27.1838 52.7744 24.8406 53.0304 24.0316C53.3434 23.0553 53.7417 23.1948 54.4103 23.1669C54.4103 23.1669 55.8186 23.2227 57.9097 23.2227C58.6494 18.6199 59.0478 15.0773 59.2327 14.6309C60.3565 11.953 70.3285 5.84393 69.859 8.21502C69.3896 10.4885 67.1562 16.3604 65.3354 23.125H65.4776C69.2047 22.9716 72.448 22.8042 74.468 22.8182C75.1793 22.8182 76.0613 22.6229 76.0328 23.5156C76.0044 24.4222 75.4923 26.1656 75.0086 27.2396C74.5818 28.1601 74.2973 28.3554 73.2304 28.4809C71.5234 28.6622 68.8775 28.5228 64.24 28.5646H64.2116C62.7179 36.6403 62.0066 42.5959 63.8986 44.8136C64.7379 45.7899 65.7906 46.4594 67.014 46.7662C69.1762 47.2823 72.0071 46.041 73.7995 45.0646C74.5107 44.688 75.1224 44.2975 75.6487 43.9907V43.9488C76.0186 38.4814 77.0002 32.4281 78.124 27.1001C79.4754 20.726 81.0971 12.7619 81.2535 8.95425C81.3389 7.46185 81.3958 4.63049 82.5765 3.54257C84.5965 1.68754 88.2809 -0.362762 89.6749 0.0556665C93.3024 1.14358 85.2224 28.3693 84.184 33.9484C84.0133 34.8271 84.2693 35.4826 84.7672 35.1339C86.019 34.2692 88.4231 32.191 90.1728 31.5633C92.3351 30.7823 96.7165 29.8478 98.4093 31.6331C100.088 33.4184 99.7607 36.8634 98.7223 42.7772C98.1533 46.1107 98.2955 46.9894 99.0494 47.2962C100.045 47.7007 101.269 46.8081 102.464 45.6225C102.279 44.5067 102.336 43.6978 102.336 43.6978C102.037 38.1187 107.442 31.5912 114.114 30.2941C115.186 30.0834 116.282 30.0177 117.372 30.0988C121.355 30.4057 123.432 32.191 124.442 34.3808C126.259 32.8653 128.382 31.7436 130.672 31.0891C133.005 30.4475 135.58 30.4754 136.021 32.6234C136.619 35.5524 132.721 45.5388 135.31 46.5849C136.32 47.0033 137.785 46.2641 139.151 45.0088C142.536 41.9125 142.778 39.2066 143.461 35.0084C143.674 33.7531 143.945 32.2189 144.13 31.8562C144.613 30.9636 145.438 30.9217 146.335 30.9357C147.757 30.9636 149.322 31.2146 150.033 31.7726C151.313 32.7489 150.46 34.9805 149.606 38.83C149.149 40.908 148.651 42.9773 148.113 45.0367C147.686 46.6686 148.426 46.8778 148.938 47.0312C150.417 47.4497 154.443 44.9809 155.809 42.5262V42.5122C155.24 42.1217 154.799 41.7451 154.557 41.3964C153.476 39.6669 152.167 35.4966 157.942 31.8702C163.846 28.1601 170.603 30.5033 170.233 34.6318C169.949 37.7142 168.242 38.9416 166.108 38.565C164.571 38.2861 164.187 36.3753 165.396 36.5705C166.35 36.724 166.364 34.9805 165.823 34.5063C165.483 34.2316 165.09 34.028 164.666 33.9081C164.243 33.7882 163.799 33.7544 163.362 33.8089C161.541 33.9623 159.834 35.1758 160.517 36.975C160.844 37.8258 161.584 38.1745 162.423 38.7464C164.031 39.8343 167.872 40.964 169.038 43.6838C169.493 44.7996 169.579 45.9852 169.323 47.1289C169.138 47.9936 168.754 48.8444 168.213 49.6116C169.493 49.4163 171.016 48.6352 172.452 47.7147C171.976 46.3481 171.83 44.8919 172.026 43.4607C172.637 38.3279 177.019 32.0236 183.633 30.5452C184.59 30.3298 185.568 30.2222 186.55 30.2244C189.765 30.2244 191.756 31.0891 192.738 32.456C193.662 33.7252 193.705 35.4408 193.022 37.1982C191.557 41.0756 188.328 42.582 184.942 44.6323C184.643 44.8275 184.16 45.0507 183.648 45.2738C182.894 45.6225 182.097 45.9712 181.685 46.2502C181.457 46.3897 181.357 46.5291 181.457 46.5989C182.092 47.1103 182.843 47.4643 183.648 47.631C185.639 48.0913 188.129 47.631 190.775 46.7802C191.991 46.4273 193.172 45.9651 194.302 45.3994C195.711 44.6462 196.692 43.9907 198.058 42.833C198.456 42.4983 198.883 42.1914 199.011 42.2751C199.096 42.3309 199.139 42.4146 199.153 42.5541V42.7214C199.068 43.6699 197.788 45.7202 196.379 46.8778ZM40.6686 41.9404C42.9589 39.9459 45.0785 36.9053 43.0869 35.6639C42.4041 35.2455 41.5506 35.4129 40.6686 36.0684C40.0711 36.4868 39.4594 37.1284 38.8762 37.9374C37.7865 39.6919 37.3398 41.7584 37.6101 43.7954C38.3783 43.6559 39.5448 42.9167 40.6686 41.9404ZM116.604 34.9666C115.75 34.9108 114.896 35.1897 114.114 35.6779C112.631 36.6663 111.454 38.037 110.714 39.639C109.605 41.9822 108.623 47.4357 112.265 47.7286C112.834 47.7844 113.474 47.6449 114.114 47.3241C115.409 46.6686 116.732 45.232 117.742 42.9446C118.68 40.7967 119.221 35.1339 116.604 34.9666ZM183.648 41.6614C185.995 39.6809 188.271 37.0587 186.464 35.7197C185.739 35.1758 184.729 35.371 183.648 36.1382C183.05 36.5732 182.51 37.0792 182.04 37.6445C180.954 39.1393 180.318 40.9033 180.205 42.7354C180.177 43.1817 180.262 43.8651 180.29 44.0046C180.973 43.6699 182.325 42.7633 183.648 41.6614ZM22.1899 26.5561C20.369 25.6774 19.0034 24.9522 17.1825 24.2129C15.9876 23.7248 15.2763 23.4179 14.6504 23.3342C13.7969 23.2087 13.0999 23.5016 11.5066 24.2687C9.60043 25.1753 7.80803 26.4864 5.88761 27.4069C3.38395 28.5925 3.54043 27.6859 2.47353 25.7053C1.4493 23.7945 1.5062 23.4598 3.5262 22.33C5.77381 21.0747 9.50085 19.1081 12.0045 17.8668C13.4555 17.1276 13.9534 16.8904 14.6504 17.0578C15.1199 17.1554 15.6889 17.4344 16.6847 17.8389C19.5866 19.0523 22.1756 20.0566 25.0492 21.3118C27.9511 22.5671 27.8942 23.404 26.7847 25.3566C25.6466 27.3372 25.2199 28.0346 22.1899 26.5561Z" fill="#0B5289"/>
</svg>
