<svg width="64" height="51" viewBox="0 0 64 51" fill="none" xmlns="http://www.w3.org/2000/svg">
<g clip-path="url(#clip0)">
<path d="M40.3594 34.81C40.3594 35.34 40.7894 35.76 41.3094 35.76H46.6794C47.2094 35.76 47.6294 35.33 47.6294 34.81C47.6294 34.28 47.1994 33.86 46.6794 33.86H41.3094C40.7794 33.85 40.3594 34.28 40.3594 34.81Z" fill="black"/>
<path d="M49.7598 27.7201C47.8898 27.7201 46.3698 26.2001 46.3698 24.3301C46.3698 23.8001 45.9398 23.3801 45.4198 23.3801H9.62984C9.09984 23.3801 8.67984 23.8101 8.67984 24.3301C8.67984 26.2001 7.15984 27.7201 5.28984 27.7201C4.75984 27.7201 4.33984 28.1501 4.33984 28.6701V40.9301C4.33984 41.4601 4.76984 41.8801 5.28984 41.8801C7.15984 41.8801 8.67984 43.4001 8.67984 45.2701C8.67984 45.8001 9.10984 46.2201 9.62984 46.2201H14.5098C15.0398 46.2201 15.4598 45.7901 15.4598 45.2701C15.4598 44.7501 15.0298 44.3201 14.5098 44.3201H10.4998C10.1098 42.1601 8.39984 40.4601 6.24984 40.0701V29.5401C8.40984 29.1501 10.1098 27.4401 10.4998 25.2901H21.2198C18.1398 27.3401 16.1098 30.8401 16.1098 34.8001C16.1098 38.7601 18.1398 42.2701 21.2198 44.3101H18.3298C17.7998 44.3101 17.3798 44.7401 17.3798 45.2601C17.3798 45.7801 17.8098 46.2101 18.3298 46.2101H45.4298C45.9598 46.2101 46.3798 45.7801 46.3798 45.2601C46.3798 43.3901 47.8998 41.8701 49.7698 41.8701C50.2998 41.8701 50.7198 41.4401 50.7198 40.9201V28.6801C50.7198 28.1501 50.2898 27.7201 49.7598 27.7201ZM18.0198 34.8101C18.0198 29.5601 22.2898 25.3001 27.5298 25.3001C32.7798 25.3001 37.0398 29.5701 37.0398 34.8101C37.0398 40.0501 32.7698 44.3201 27.5298 44.3201C22.2798 44.3201 18.0198 40.0501 18.0198 34.8101ZM48.8098 40.0701C46.6498 40.4601 44.9498 42.1701 44.5598 44.3201H33.8398C36.9198 42.2701 38.9498 38.7701 38.9498 34.8101C38.9498 30.8501 36.9198 27.3401 33.8398 25.3001H44.5598C44.9498 27.4601 46.6598 29.1601 48.8098 29.5501V40.0701Z" fill="black"/>
<path d="M23.6 36.79C23.27 36.79 23 37.06 23 37.39C23 37.72 23.27 37.99 23.6 37.99H24.59V39.21C24.59 39.54 24.86 39.81 25.19 39.81C25.52 39.81 25.79 39.54 25.79 39.21V37.99H28.85C29.17 37.99 29.45 37.71 29.45 37.39C29.45 37.07 29.17 36.79 28.85 36.79H25.76V35.63H28.85C30.05 35.63 31.02 34.66 31.02 33.46C31.02 32.26 30.04 31.29 28.85 31.29H25.17C24.85 31.29 24.57 31.57 24.57 31.89V34.44H23.6C23.27 34.44 23 34.71 23 35.04C23 35.37 23.27 35.64 23.6 35.64H24.59V36.8H23.6V36.79ZM25.77 32.48H28.85C29.39 32.48 29.84 32.92 29.84 33.47C29.84 34.02 29.4 34.46 28.85 34.46H25.76L25.77 32.48Z" fill="#0071B6"/>
<path d="M8.37969 33.8501C7.84969 33.8501 7.42969 34.2801 7.42969 34.8001C7.42969 35.3301 7.85969 35.7501 8.37969 35.7501H13.7497C14.2797 35.7501 14.6997 35.3201 14.6997 34.8001C14.6997 34.2701 14.2697 33.8501 13.7497 33.8501H8.37969Z" fill="black"/>
<path d="M48.8798 24.7001C49.1998 25.4701 50.3198 25.4701 50.6398 24.7001C50.7898 24.3401 50.6998 23.9001 50.4098 23.6401C50.0898 23.3401 49.5998 23.3101 49.2298 23.5501C48.8598 23.8001 48.7198 24.2901 48.8798 24.7001Z" fill="black"/>
<path d="M50.6403 44.9101C50.5003 44.5501 50.1203 44.3101 49.7403 44.3201C49.3403 44.3301 48.9803 44.6001 48.8603 44.9701C48.7403 45.3501 48.8603 45.7701 49.1703 46.0201C49.5003 46.2801 49.9703 46.2901 50.3103 46.0501C50.6703 45.8001 50.8103 45.3201 50.6403 44.9101Z" fill="black"/>
<path d="M4.75958 25.13C5.47958 25.6 6.43958 24.92 6.20958 24.08C6.09958 23.69 5.75958 23.41 5.35958 23.38C4.95958 23.35 4.56958 23.59 4.40958 23.97C4.23958 24.39 4.38958 24.88 4.75958 25.13Z" fill="black"/>
<path d="M6.16965 44.91C5.84965 44.15 4.74965 44.14 4.41965 44.89C4.24965 45.27 4.35965 45.73 4.66965 45.99C4.96965 46.24 5.39965 46.29 5.74965 46.11C6.16965 45.88 6.35965 45.35 6.16965 44.91Z" fill="black"/>
<path d="M55.06 23.71C55.06 21.14 52.97 19.05 50.4 19.05H25H23.09H4.66C2.09 19.05 0 21.14 0 23.71V45.9001C0 48.4701 2.09 50.5601 4.66 50.5601H50.39C52.96 50.5601 55.05 48.4701 55.05 45.9001V28.24V26.33V23.71H55.06ZM53.15 45.9001C53.15 47.4201 51.91 48.66 50.39 48.66H4.66C3.14 48.66 1.9 47.4201 1.9 45.9001V23.71C1.9 22.19 3.14 20.9501 4.66 20.9501H50.39C51.91 20.9501 53.15 22.19 53.15 23.71V45.9001Z" fill="black"/>
<path d="M32.4895 14.5801H27.6395C27.1095 14.5801 26.6895 15.0101 26.6895 15.5301C26.6895 16.0601 27.1195 16.4801 27.6395 16.4801H32.4895C33.0195 16.4801 33.4395 16.0501 33.4395 15.5301C33.4395 15.0101 33.0095 14.5801 32.4895 14.5801Z" fill="#ABD526"/>
<path d="M40.5598 14.5801H35.7098C35.1798 14.5801 34.7598 15.0101 34.7598 15.5301C34.7598 16.0601 35.1898 16.4801 35.7098 16.4801H40.5598C41.0898 16.4801 41.5098 16.0501 41.5098 15.5301C41.5098 15.0101 41.0898 14.5801 40.5598 14.5801Z" fill="#ABD526"/>
<path d="M48.6398 14.5801H43.7898C43.2598 14.5801 42.8398 15.0101 42.8398 15.5301C42.8398 16.0601 43.2698 16.4801 43.7898 16.4801H48.6398C49.1698 16.4801 49.5898 16.0501 49.5898 15.5301C49.5898 15.0101 49.1598 14.5801 48.6398 14.5801Z" fill="#ABD526"/>
<path d="M59.0298 0H52.2798C51.7498 0 51.3298 0.43 51.3298 0.95C51.3298 1.47 51.7598 1.9 52.2798 1.9H59.0298C60.7198 1.9 62.0998 3.28 62.0998 4.97V5.38H24.9998V4.97C24.9998 3.28 26.3798 1.9 28.0698 1.9H48.4798C49.0098 1.9 49.4298 1.47 49.4298 0.95C49.4298 0.43 48.9898 0 48.4698 0H28.0598C25.3198 0 23.0898 2.23 23.0898 4.97V19.04H24.9998V13H62.0998V23.26C62.0998 24.95 60.7198 26.33 59.0298 26.33H55.0598V28.24H59.0298C61.7698 28.24 63.9998 26.01 63.9998 23.27V4.97C63.9998 2.23 61.7698 0 59.0298 0ZM62.0898 11.1H24.9898V7.29H62.0898V11.1Z" fill="#ABD526"/>
</g>
<defs>
<clipPath id="clip0">
<rect width="64" height="50.56" fill="white"/>
</clipPath>
</defs>
</svg>
