<svg width="43" height="42" viewBox="0 0 43 42" fill="none" xmlns="http://www.w3.org/2000/svg">
<g clip-path="url(#clip0)">
<path d="M38.3758 15.7748C38.3266 11.6814 36.85 7.89155 34.2168 5.02866L34.9387 4.30679C35.1766 4.0689 35.1766 3.67515 34.9387 3.43726C34.7008 3.19937 34.307 3.19937 34.0691 3.43726L33.3473 4.15913C30.9766 1.9689 27.9824 0.582568 24.6356 0.1396C24.2992 0.098584 23.9875 0.328272 23.9465 0.6646C23.9055 1.00093 24.1352 1.31265 24.4715 1.35366C26.3336 1.59976 28.0727 2.15757 29.6395 3.00249C28.5238 2.97788 27.2934 3.15835 25.9645 3.5521C23.159 4.37241 20.2715 6.03765 17.9172 8.17866C17.2281 6.09507 15.8664 4.69233 13.8566 4.01147C15.9977 2.28882 18.9426 1.27983 22.109 1.22241C22.4453 1.21421 22.716 0.935303 22.716 0.598975C22.7078 0.262646 22.4371 -0.00805664 22.1008 -0.00805664H22.0926C18.1879 0.0657715 14.5703 1.48491 12.1668 3.88022C12.0027 4.04429 11.9453 4.28218 12.0109 4.49546C12.0766 4.71694 12.257 4.8728 12.4867 4.92202C14.9723 5.3978 16.4406 6.86616 16.982 9.42554C17.0066 9.54858 17.0723 9.65522 17.1543 9.73726C17.1625 9.74546 17.1625 9.75366 17.1707 9.75366C17.2774 9.8603 17.4168 9.91772 17.5645 9.93413C19.8695 10.6396 21.4199 11.9193 22.2731 13.8388L15.7926 20.3193V21.033C15.7926 21.033 15.6449 21.2462 15.6203 21.4841H15.8582C15.8582 21.4841 16.0633 21.4103 16.334 21.5087L22.7078 15.1349C22.7981 15.4876 22.9539 15.5697 23.2246 15.6599L16.9656 21.9189C16.9574 21.9107 16.9574 21.9107 16.9492 21.9025C17.2035 22.1732 17.4086 22.5751 17.425 23.2068V23.1986L24.4879 16.1357C26.5961 17.1037 27.8922 18.6294 28.4254 20.7623C28.4254 20.9181 28.4828 21.074 28.6059 21.1888C28.6141 21.197 28.6141 21.197 28.6223 21.2052C28.7043 21.2955 28.8191 21.3529 28.9422 21.3775C31.4688 21.8697 32.8961 23.3052 33.4457 25.881C33.4949 26.1025 33.659 26.283 33.8723 26.3404C33.9297 26.3568 33.9871 26.365 34.0445 26.365C34.2086 26.365 34.3645 26.2994 34.4793 26.1845C37.0059 23.6908 38.425 19.8845 38.3758 15.7748ZM18.7785 9.0646C20.9934 7.06304 23.6922 5.51265 26.309 4.74155C28.8848 3.98687 31.075 4.10171 32.4449 5.06147L23.6102 13.888C22.7488 11.5419 21.0836 9.96694 18.7785 9.0646ZM24.4469 14.7904L33.3145 5.9228C34.266 7.29272 34.3891 9.48296 33.6344 12.0587C32.8715 14.6673 31.3293 17.3416 29.3441 19.5482C28.532 17.3334 26.916 15.7584 24.4469 14.7904ZM34.3399 24.5275C33.6262 22.4767 32.2316 21.1068 30.1891 20.4423C32.3219 18.088 33.9789 15.2087 34.8074 12.4033C35.2012 11.0744 35.3816 9.83569 35.357 8.72007C36.4973 10.8283 37.1125 13.24 37.1453 15.7748C37.1863 19.1462 36.1774 22.2716 34.3399 24.5275Z" fill="#ABD526"/>
<path d="M30.1973 20.4502C30.3941 20.2288 30.591 20.0073 30.7797 19.7776C30.591 19.9991 30.3941 20.2288 30.1973 20.4502Z" fill="black"/>
<path d="M31.7789 31.1228C31.8199 30.9833 31.8363 30.8357 31.8363 30.688V29.515C31.8363 28.7603 31.3195 28.1205 30.6223 27.9318C30.6633 27.7841 30.6879 27.6283 30.6879 27.4642V26.2912C30.6879 25.3888 29.9496 24.6505 29.0473 24.6505H26.3238C25.9875 24.6505 25.7086 24.9294 25.7086 25.2658C25.7086 25.6021 25.9875 25.881 26.3238 25.881H29.0473C29.277 25.881 29.4574 26.0615 29.4574 26.2912V27.4642C29.4574 27.6939 29.277 27.8744 29.0473 27.8744H22.2879H21.1395C20.9098 27.8744 20.7293 27.6939 20.7293 27.4642V26.2912C20.7293 26.0615 20.9098 25.881 21.1395 25.881H23.8629C24.1992 25.881 24.4781 25.6021 24.4781 25.2658C24.4781 24.9294 24.1992 24.6505 23.8629 24.6505H21.1395C20.2371 24.6505 19.4988 25.3888 19.4988 26.2912V27.4642C19.4988 28.2189 20.0156 28.8587 20.7129 29.0474C20.6719 29.1951 20.6473 29.3509 20.6473 29.515V30.0154C20.3684 29.9744 20.0813 29.9498 19.7859 29.9498C18.941 29.9498 18.1371 30.122 17.4152 30.4419V29.515C17.4152 29.1294 17.2758 28.7685 17.0543 28.4896C17.284 28.2107 17.4152 27.8498 17.4152 27.4642V26.2912C17.4152 25.9056 17.2758 25.5447 17.0543 25.2658C17.284 24.9869 17.4152 24.6259 17.4152 24.2404V23.2068L17.4234 23.1986C17.407 22.5916 17.2102 22.1814 16.9641 21.9189L16.9559 21.9271C16.7836 21.7466 16.5621 21.6072 16.3242 21.5169L16.3324 21.5087C16.0617 21.4103 15.8484 21.4349 15.8484 21.4349L15.6434 21.4595C15.8156 21.3693 15.7828 21.033 15.7828 21.033V20.3193L15.7746 20.3275V19.8435C15.7746 18.9412 15.0363 18.2029 14.134 18.2029H6.23438C5.33203 18.2029 4.59375 18.9412 4.59375 19.8435V21.0166C4.59375 21.9189 5.33203 22.6572 6.23438 22.6572H6.28359C6.25078 22.7884 6.22617 22.9279 6.22617 23.0673V24.2404C6.22617 24.6259 6.36563 24.9869 6.58711 25.2658C6.35742 25.5447 6.22617 25.9056 6.22617 26.2912V27.4642C6.22617 27.8498 6.36563 28.2107 6.58711 28.4896C6.35742 28.7685 6.22617 29.1294 6.22617 29.515V30.688C6.22617 31.5904 6.96445 32.3287 7.8668 32.3287H7.91602C7.8832 32.4599 7.85859 32.5994 7.85859 32.7388V33.9119C7.85859 34.8142 8.59688 35.5525 9.49922 35.5525H9.54844C9.51562 35.6837 9.49102 35.8232 9.49102 35.9626V37.1357C9.49102 37.2751 9.50742 37.4146 9.54844 37.5458H9.49922C8.59688 37.5458 7.85859 38.2841 7.85859 39.1865V40.3595C7.85859 41.2619 8.59688 42.0001 9.49922 42.0001H10.1719C10.5082 42.0001 10.7871 41.7212 10.7871 41.3849C10.7871 41.0486 10.5082 40.7697 10.1719 40.7697H9.49922C9.26953 40.7697 9.08906 40.5892 9.08906 40.3595V39.1865C9.08906 38.9568 9.26953 38.7763 9.49922 38.7763H11.1398H14.4539C14.8641 39.5556 15.4465 40.2365 16.1437 40.7697H12.6328C12.2965 40.7697 12.0176 41.0486 12.0176 41.3849C12.0176 41.7212 12.2965 42.0001 12.6328 42.0001H17.407C17.6859 42.0001 17.9648 41.9263 18.2027 41.7869C18.7031 41.9263 19.2363 42.0001 19.7777 42.0001C20.352 42.0001 20.9098 41.9181 21.4348 41.7623C21.6891 41.9099 21.9762 42.0001 22.2797 42.0001H30.1875C31.0898 42.0001 31.8281 41.2619 31.8281 40.3595V39.1865C31.8281 38.8009 31.6887 38.44 31.4672 38.1611C31.6969 37.8822 31.8281 37.5212 31.8281 37.1357V35.9626C31.8281 35.815 31.8035 35.6673 31.7707 35.5279C32.55 35.3966 33.1406 34.724 33.1406 33.9119V32.7388C33.157 31.9267 32.5582 31.2541 31.7789 31.1228ZM21.8859 29.515C21.8859 29.2853 22.0664 29.1048 22.2961 29.1048H29.0555H30.2039C30.4336 29.1048 30.6141 29.2853 30.6141 29.515V30.688C30.6141 30.9177 30.4336 31.0982 30.2039 31.0982C29.4984 31.0982 24.2156 31.0982 23.3215 31.0982C22.8867 30.7783 22.4027 30.524 21.8941 30.3271V29.515H21.8859ZM15.7828 22.6572C16.0125 22.6572 16.193 22.8376 16.193 23.0673V24.2404C16.193 24.4701 16.0125 24.6505 15.7828 24.6505H7.875C7.64531 24.6505 7.46484 24.4701 7.46484 24.2404V23.0673C7.46484 22.8376 7.64531 22.6572 7.875 22.6572H15.7828ZM16.193 26.2912V27.4642C16.193 27.6939 16.0125 27.8744 15.7828 27.8744H7.875C7.64531 27.8744 7.46484 27.6939 7.46484 27.4642V26.2912C7.46484 26.0615 7.64531 25.881 7.875 25.881H15.7828C16.0043 25.881 16.193 26.0615 16.193 26.2912ZM6.23438 21.4267C6.00469 21.4267 5.82422 21.2462 5.82422 21.0166V19.8435C5.82422 19.6138 6.00469 19.4333 6.23438 19.4333H14.1422C14.3719 19.4333 14.5523 19.6138 14.5523 19.8435V21.0166C14.5523 21.2462 14.3719 21.4267 14.1422 21.4267H7.875H6.23438ZM7.875 31.0982C7.64531 31.0982 7.46484 30.9177 7.46484 30.688V29.515C7.46484 29.2853 7.64531 29.1048 7.875 29.1048H15.7828C16.0125 29.1048 16.193 29.2853 16.193 29.515V30.688C16.193 30.9177 16.0125 31.0982 15.7828 31.0982C14.9379 31.0982 8.67891 31.0982 7.875 31.0982ZM11.1563 37.5458C10.9266 37.5458 10.7461 37.3654 10.7461 37.1357V35.9626C10.7461 35.733 10.9266 35.5525 11.1563 35.5525H13.7895C13.7812 35.6919 13.773 35.8314 13.773 35.9791C13.773 36.5205 13.8469 37.0455 13.9781 37.5458H11.1563ZM14.0109 34.322C13.0594 34.322 10.4508 34.322 9.51562 34.322C9.28594 34.322 9.10547 34.1416 9.10547 33.9119V32.7388C9.10547 32.5091 9.28594 32.3287 9.51562 32.3287H15.0117C14.5605 32.9193 14.216 33.5919 14.0109 34.322ZM19.7941 40.7697C17.1527 40.7697 15.0035 38.6205 15.0035 35.9791C15.0035 33.3376 17.1527 31.1884 19.7941 31.1884C22.4355 31.1884 24.5848 33.3376 24.5848 35.9791C24.5848 38.6205 22.4355 40.7697 19.7941 40.7697ZM30.6141 40.3595C30.6141 40.5892 30.4336 40.7697 30.2039 40.7697H23.4363C24.1336 40.2365 24.716 39.5556 25.1262 38.7763H30.2039C30.4336 38.7763 30.6141 38.9568 30.6141 39.1865V40.3595ZM30.6141 37.1357C30.6141 37.3654 30.4336 37.5458 30.2039 37.5458H25.6102C25.7414 37.0455 25.8152 36.5205 25.8152 35.9791C25.8152 35.8396 25.807 35.6919 25.7988 35.5525H30.1957C30.4254 35.5525 30.6059 35.733 30.6059 35.9626V37.1357H30.6141ZM31.9266 33.9119C31.9266 34.1416 31.7461 34.322 31.5164 34.322C30.3023 34.322 26.7996 34.322 25.5855 34.322C25.3723 33.5919 25.0359 32.9193 24.5848 32.3287H31.5164C31.7461 32.3287 31.9266 32.5091 31.9266 32.7388V33.9119Z" fill="black"/>
<path d="M17.466 37.119C17.2527 37.119 17.0723 37.2995 17.0723 37.5128C17.0723 37.7261 17.2527 37.9065 17.466 37.9065H18.1141V38.7105C18.1141 38.9237 18.2945 39.1042 18.5078 39.1042C18.7211 39.1042 18.9016 38.9237 18.9016 38.7105V37.9065H20.9113C21.1246 37.9065 21.3051 37.7261 21.3051 37.5128C21.3051 37.2995 21.1246 37.119 20.9113 37.119H18.8852V36.3562H20.9113C21.6988 36.3562 22.3387 35.7163 22.3387 34.9288C22.3387 34.1413 21.6988 33.5015 20.9113 33.5015H18.4996C18.2863 33.5015 18.1059 33.6819 18.1059 33.8952V35.5687H17.466C17.2527 35.5687 17.0723 35.7491 17.0723 35.9624C17.0723 36.1757 17.2527 36.3562 17.466 36.3562H18.1141V37.119H17.466ZM18.8934 34.289H20.9113C21.2641 34.289 21.5594 34.5761 21.5594 34.937C21.5594 35.2979 21.2723 35.5851 20.9113 35.5851H18.8852L18.8934 34.289Z" fill="#0071B6"/>
</g>
<defs>
<clipPath id="clip0">
<rect width="42" height="42" fill="white" transform="translate(0.484375)"/>
</clipPath>
</defs>
</svg>
